<?xml version="1.0"?>
<robot name="swerveRobot">
  
  <link name="ramp_roller">
     <visual>
      <geometry>
        <cylinder length="0.4" radius="0.025"/>
      </geometry>
      <origin rpy="0 1.57 0" xyz="0 0 0"/>
      <material name="white">
        <color rgba="1 1 1 1"/>
      </material>
    </visual>
    <collision>
      <geometry>
        <cylinder length="0.4" radius="0.025"/>
      </geometry>
      <origin rpy="0 1.57 0" xyz="0 0 0"/>
    </collision>
    <inertial>
      <mass value="1"/>
      <origin rpy="0 0 0" xyz="0 0 0"/>
     <inertia ixx="0.0335‬" ixy="0.0" ixz="0.0" iyy="0.0335‬" iyz="0.0" izz="0.06"/>
    </inertial>
  </link>

 <joint name="ramp_roller_holder" type="continuous">
    <parent link="ramp"/>
    <child link="ramp_roller"/>
    <origin rpy="0 0 0" xyz="0 0 0.35"/>
  </joint>


  <!-- left side stuff -->
   <link name="ramp_left_wheel_2">
     <visual>
      <geometry>
        <cylinder length="0.06" radius="0.1"/>
      </geometry>
      <origin rpy="0 0 0" xyz="0 0 0"/>
      <material name="white">
        <color rgba="1 1 1 1"/>
      </material>
    </visual>
    <collision>
      <geometry>
       <cylinder length="0.05" radius="0.1"/>
      </geometry>
      <origin rpy="0 0 0" xyz="0 0 0"/>
    </collision>
    <inertial>
      <mass value="1"/>
      <origin rpy="0 0 0" xyz="0 0 0"/>
     <inertia ixx="0.0335‬" ixy="0.0" ixz="0.0" iyy="0.0335‬" iyz="0.0" izz="0.06"/>
    </inertial>
  </link>

   <joint name="ramp_left_wheel_2_holder" type="continuous">
    <parent link="left_ramp_compress"/>
    <child link="ramp_left_wheel_2"/>
    <origin rpy="1.57 0 0" xyz="0 0 -0.2"/>
    <axis xyz="0 0 1"/>
    <limit effort="100" velocity="100"/>
    <joint_properties damping="0.0" friction="0.0"/>
  </joint>

    <link name="ramp_left_wheel_1">
     <visual>
      <geometry>
        <cylinder length="0.06" radius="0.1"/>
      </geometry>
      <origin rpy="0 0 0" xyz="0 0 0"/>
      <material name="white">
        <color rgba="1 1 1 1"/>
      </material>
    </visual>
    <collision>
      <geometry>
       <cylinder length="0.05" radius="0.1"/>
      </geometry>
      <origin rpy="0 0 0" xyz="0 0 0"/>
    </collision>
    <inertial>
      <mass value="1"/>
      <origin rpy="0 0 0" xyz="0 0 0"/>
     <inertia ixx="0.0335‬" ixy="0.0" ixz="0.0" iyy="0.0335‬" iyz="0.0" izz="0.06"/>
    </inertial>
  </link>

   <joint name="ramp_left_wheel_1_holder" type="continuous">
    <parent link="left_ramp_compress"/>
    <child link="ramp_left_wheel_1"/>
    <origin rpy="1.57 0 0" xyz="0 0 0.0"/>
    <axis xyz="0 0 1"/>
    <limit effort="100" velocity="100"/>
    <joint_properties damping="0.0" friction="0.0"/>
  </joint>
  
  <link name="ramp_left_wheel_0">
     <visual>
      <geometry>
        <cylinder length="0.06" radius="0.1"/>
      </geometry>
      <origin rpy="0 0 0" xyz="0 0 0"/>
      <material name="white">
        <color rgba="1 1 1 1"/>
      </material>
    </visual>
    <collision>
      <geometry>
       <cylinder length="0.05" radius="0.1"/>
      </geometry>
      <origin rpy="0 0 0" xyz="0 0 0"/>
    </collision>
    <inertial>
      <mass value="1"/>
      <origin rpy="0 0 0" xyz="0 0 0"/>
     <inertia ixx="0.0335‬" ixy="0.0" ixz="0.0" iyy="0.0335‬" iyz="0.0" izz="0.06"/>
    </inertial>
  </link>

   <joint name="ramp_left_wheel_0_holder" type="continuous">
    <parent link="left_ramp_compress"/>
    <child link="ramp_left_wheel_0"/>
    <origin rpy="1.57 0 0" xyz="0 0 0.2"/>
    <axis xyz="0 0 1"/>
    <limit effort="100" velocity="100"/>
    <joint_properties damping="0.0" friction="0.0"/>
  </joint>
  
  
   <joint name="left_ramp_compress_holder" type="prismatic">
    <axis xyz="1 0 0"/>
    <parent link="root"/>
    <child link="left_ramp_compress"/>
    <origin rpy="0.4 0 0" xyz="0.25 0.3 0.0"/>

    <joint_properties damping="0.0" friction="0.0"/>

    <limit effort="100.0" lower="-0.025" upper="0.05" velocity="100"/>
    <!--<safety_controller soft_lower_limit="-0.2" soft_upper_limit="0.2" k_velocity="0.001"/> -->


  </joint>
  
    <link name="left_ramp_compress">
  </link>
  
  <link name="arm_left">
    <visual>
      <geometry>
        <box size="0.1 0.05 0.5"/>
      </geometry>
      <origin rpy="0 0 0" xyz="0 0 0.2"/>
      <material name="gray">
        <color rgba="0 0.8 0 1"/>
      </material>
    </visual>
    <collision>
      <geometry>
       <box size="0.1 0.05 0.5"/>
      </geometry>
      <origin rpy="0 0 0" xyz="0 0 0.2"/>
    </collision>
    <inertial>
      <mass value="3"/>
      <origin rpy="0 0 0" xyz="0 0 0"/>
      <inertia ixx="1.0" ixy="0.0" ixz="0.0" iyy="1.0" iyz="0.0" izz="1.0"/>
    </inertial>
  </link>
	
 <joint name="arm_left_holder" type="continuous">
    <parent link="root"/>
    <child link="arm_left"/>
    <origin rpy="0.25 0 0" xyz="0.3 0.1 0.3"/>
    <axis xyz="0 1 0"/>
    <limit effort="100" velocity="100"/>
    <joint_properties damping="0.0" friction="0.0"/>
  </joint>

<link name="arm_left_wheel_0">
     <visual>
      <geometry>
        <cylinder length="0.06" radius="0.1"/>
      </geometry>
      <origin rpy="0 0 0" xyz="0 0 0"/>
      <material name="white">
        <color rgba="1 1 1 1"/>
      </material>
    </visual>
    <collision>
      <geometry>
       <cylinder length="0.05" radius="0.1"/>
      </geometry>
      <origin rpy="0 0 0" xyz="0 0 0"/>
    </collision>
    <inertial>
      <mass value="1"/>
      <origin rpy="0 0 0" xyz="0 0 0"/>
     <inertia ixx="0.0335‬" ixy="0.0" ixz="0.0" iyy="0.0335‬" iyz="0.0" izz="0.06"/>
    </inertial>
  </link>

   <joint name="arm_left_wheel_0_holder" type="continuous">
    <parent link="arm_left"/>
    <child link="arm_left_wheel_0"/>
    <origin rpy="1.57 0 0" xyz="0 0 0"/>
    <axis xyz="0 0 1"/>
    <limit effort="100" velocity="100"/>
    <joint_properties damping="0.0" friction="0.0"/>
  </joint>
  
  <link name="arm_left_wheel_1">
     <visual>
      <geometry>
        <cylinder length="0.06" radius="0.1"/>
      </geometry>
      <origin rpy="0 0 0" xyz="0 0 0"/>
      <material name="white">
        <color rgba="1 1 1 1"/>
      </material>
    </visual>
    <collision>
      <geometry>
       <cylinder length="0.05" radius="0.1"/>
      </geometry>
      <origin rpy="0 0 0" xyz="0 0 0"/>
    </collision>
    <inertial>
      <mass value="1"/>
      <origin rpy="0 0 0" xyz="0 0 0"/>
     <inertia ixx="0.0335‬" ixy="0.0" ixz="0.0" iyy="0.0335‬" iyz="0.0" izz="0.06"/>
    </inertial>
  </link>

   <joint name="arm_left_wheel_1_holder" type="continuous">
    <parent link="arm_left"/>
    <child link="arm_left_wheel_1"/>
    <origin rpy="1.57 0 0" xyz="0 0 0.2"/>
    <axis xyz="0 0 1"/>
    <limit effort="100" velocity="100"/>
    <joint_properties damping="0.0" friction="0.0"/>
  </joint>

 <link name="arm_left_wheel_2">
     <visual>
      <geometry>
        <cylinder length="0.06" radius="0.1"/>
      </geometry>
      <origin rpy="0 0 0" xyz="0 0 0"/>
      <material name="white">
        <color rgba="1 1 1 1"/>
      </material>
    </visual>
    <collision>
      <geometry>
       <cylinder length="0.05" radius="0.1"/>
      </geometry>
      <origin rpy="0 0 0" xyz="0 0 0"/>
    </collision>
    <inertial>
      <mass value="1"/>
      <origin rpy="0 0 0" xyz="0 0 0"/>
     <inertia ixx="0.0335‬" ixy="0.0" ixz="0.0" iyy="0.0335‬" iyz="0.0" izz="0.06"/>
    </inertial>
  </link>

   <joint name="arm_left_wheel_2_holder" type="continuous">
    <parent link="arm_left"/>
    <child link="arm_left_wheel_2"/>
    <origin rpy="1.57 0 0" xyz="0 0 0.4"/>
    <axis xyz="0 0 1"/>
    <limit effort="100" velocity="100"/>
    <joint_properties damping="0.0" friction="0.0"/>
  </joint>
  
  
  

  <!-- right side stuff -->
   <link name="ramp_right_wheel_2">
     <visual>
      <geometry>
        <cylinder length="0.06" radius="0.1"/>
      </geometry>
      <origin rpy="0 0 0" xyz="0 0 0"/>
      <material name="white">
        <color rgba="1 1 1 1"/>
      </material>
    </visual>
    <collision>
      <geometry>
       <cylinder length="0.05" radius="0.1"/>
      </geometry>
      <origin rpy="0 0 0" xyz="0 0 0"/>
    </collision>
    <inertial>
      <mass value="1"/>
      <origin rpy="0 0 0" xyz="0 0 0"/>
     <inertia ixx="0.0335‬" ixy="0.0" ixz="0.0" iyy="0.0335‬" iyz="0.0" izz="0.06"/>
    </inertial>
  </link>

   <joint name="ramp_right_wheel_2_holder" type="continuous">
    <parent link="right_ramp_compress"/>
    <child link="ramp_right_wheel_2"/>
    <origin rpy="1.57 0 0" xyz="0 0 -0.2"/>
    <axis xyz="0 0 1"/>
    <limit effort="100" velocity="100"/>
    <joint_properties damping="0.0" friction="0.0"/>
  </joint>

    <link name="ramp_right_wheel_1">
     <visual>
      <geometry>
        <cylinder length="0.06" radius="0.1"/>
      </geometry>
      <origin rpy="0 0 0" xyz="0 0 0"/>
      <material name="white">
        <color rgba="1 1 1 1"/>
      </material>
    </visual>
    <collision>
      <geometry>
       <cylinder length="0.05" radius="0.1"/>
      </geometry>
      <origin rpy="0 0 0" xyz="0 0 0"/>
    </collision>
    <inertial>
      <mass value="1"/>
      <origin rpy="0 0 0" xyz="0 0 0"/>
     <inertia ixx="0.0335‬" ixy="0.0" ixz="0.0" iyy="0.0335‬" iyz="0.0" izz="0.06"/>
    </inertial>
  </link>

   <joint name="ramp_right_wheel_1_holder" type="continuous">
    <parent link="right_ramp_compress"/>
    <child link="ramp_right_wheel_1"/>
    <origin rpy="1.57 0 0" xyz="0 0 0.0"/>
    <axis xyz="0 0 1"/>
    <limit effort="100" velocity="100"/>
    <joint_properties damping="0.0" friction="0.0"/>
  </joint>
  
  <link name="ramp_right_wheel_0">
     <visual>
      <geometry>
        <cylinder length="0.06" radius="0.1"/>
      </geometry>
      <origin rpy="0 0 0" xyz="0 0 0"/>
      <material name="white">
        <color rgba="1 1 1 1"/>
      </material>
    </visual>
    <collision>
      <geometry>
       <cylinder length="0.05" radius="0.1"/>
      </geometry>
      <origin rpy="0 0 0" xyz="0 0 0"/>
    </collision>
    <inertial>
      <mass value="1"/>
      <origin rpy="0 0 0" xyz="0 0 0"/>
     <inertia ixx="0.0335‬" ixy="0.0" ixz="0.0" iyy="0.0335‬" iyz="0.0" izz="0.06"/>
    </inertial>
  </link>

   <joint name="ramp_right_wheel_0_holder" type="continuous">
    <parent link="right_ramp_compress"/>
    <child link="ramp_right_wheel_0"/>
    <origin rpy="1.57 0 0" xyz="0 0 0.2"/>
    <axis xyz="0 0 1"/>
    <limit effort="100" velocity="100"/>
    <joint_properties damping="0.0" friction="0.0"/>
  </joint>
  
  
   <joint name="right_ramp_compress_holder" type="prismatic">
    <axis xyz="1 0 0"/>
    <parent link="root"/>
    <child link="right_ramp_compress"/>
    <origin rpy="0.4 0 0" xyz="-0.25 0.3 0.0"/>

    <joint_properties damping="0.0" friction="0.0"/>

    <limit effort="100.0" lower="-0.025" upper="0.05" velocity="100"/>
    <!--<safety_controller soft_lower_limit="-0.2" soft_upper_limit="0.2" k_velocity="0.001"/> -->


  </joint>
  
    <link name="right_ramp_compress">
  </link>
  
  <link name="arm_right">
    <visual>
      <geometry>
        <box size="0.1 0.05 0.5"/>
      </geometry>
      <origin rpy="0 0 0" xyz="0 0 0.2"/>
      <material name="gray">
        <color rgba="0 0.8 0 1"/>
      </material>
    </visual>
    <collision>
      <geometry>
       <box size="0.1 0.05 0.5"/>
      </geometry>
      <origin rpy="0 0 0" xyz="0 0 0.2"/>
    </collision>
    <inertial>
      <mass value="3"/>
      <origin rpy="0 0 0" xyz="0 0 0"/>
      <inertia ixx="1.0" ixy="0.0" ixz="0.0" iyy="1.0" iyz="0.0" izz="1.0"/>
    </inertial>
  </link>
	
 <joint name="arm_right_holder" type="continuous">
    <parent link="root"/>
    <child link="arm_right"/>
    <origin rpy="0.25 0 0" xyz="-0.3 0.1 0.3"/>
    <axis xyz="0 1 0"/>
    <limit effort="100" velocity="100"/>
    <joint_properties damping="0.0" friction="0.0"/>
  </joint>

<link name="arm_right_wheel_0">
     <visual>
      <geometry>
        <cylinder length="0.06" radius="0.1"/>
      </geometry>
      <origin rpy="0 0 0" xyz="0 0 0"/>
      <material name="white">
        <color rgba="1 1 1 1"/>
      </material>
    </visual>
    <collision>
      <geometry>
       <cylinder length="0.05" radius="0.1"/>
      </geometry>
      <origin rpy="0 0 0" xyz="0 0 0"/>
    </collision>
    <inertial>
      <mass value="1"/>
      <origin rpy="0 0 0" xyz="0 0 0"/>
     <inertia ixx="0.0335‬" ixy="0.0" ixz="0.0" iyy="0.0335‬" iyz="0.0" izz="0.06"/>
    </inertial>
  </link>

   <joint name="arm_right_wheel_0_holder" type="continuous">
    <parent link="arm_right"/>
    <child link="arm_right_wheel_0"/>
    <origin rpy="1.57 0 0" xyz="0 0 0"/>
    <axis xyz="0 0 1"/>
    <limit effort="100" velocity="100"/>
    <joint_properties damping="0.0" friction="0.0"/>
  </joint>
  
  <link name="arm_right_wheel_1">
     <visual>
      <geometry>
        <cylinder length="0.06" radius="0.1"/>
      </geometry>
      <origin rpy="0 0 0" xyz="0 0 0"/>
      <material name="white">
        <color rgba="1 1 1 1"/>
      </material>
    </visual>
    <collision>
      <geometry>
       <cylinder length="0.05" radius="0.1"/>
      </geometry>
      <origin rpy="0 0 0" xyz="0 0 0"/>
    </collision>
    <inertial>
      <mass value="1"/>
      <origin rpy="0 0 0" xyz="0 0 0"/>
     <inertia ixx="0.0335‬" ixy="0.0" ixz="0.0" iyy="0.0335‬" iyz="0.0" izz="0.06"/>
    </inertial>
  </link>

   <joint name="arm_right_wheel_1_holder" type="continuous">
    <parent link="arm_right"/>
    <child link="arm_right_wheel_1"/>
    <origin rpy="1.57 0 0" xyz="0 0 0.2"/>
    <axis xyz="0 0 1"/>
    <limit effort="100" velocity="100"/>
    <joint_properties damping="0.0" friction="0.0"/>
  </joint>

 <link name="arm_right_wheel_2">
     <visual>
      <geometry>
        <cylinder length="0.06" radius="0.1"/>
      </geometry>
      <origin rpy="0 0 0" xyz="0 0 0"/>
      <material name="white">
        <color rgba="1 1 1 1"/>
      </material>
    </visual>
    <collision>
      <geometry>
       <cylinder length="0.05" radius="0.1"/>
      </geometry>
      <origin rpy="0 0 0" xyz="0 0 0"/>
    </collision>
    <inertial>
      <mass value="1"/>
      <origin rpy="0 0 0" xyz="0 0 0"/>
     <inertia ixx="0.0335‬" ixy="0.0" ixz="0.0" iyy="0.0335‬" iyz="0.0" izz="0.06"/>
    </inertial>
  </link>

   <joint name="arm_right_wheel_2_holder" type="continuous">
    <parent link="arm_right"/>
    <child link="arm_right_wheel_2"/>
    <origin rpy="1.57 0 0" xyz="0 0 0.4"/>
    <axis xyz="0 0 1"/>
    <limit effort="100" velocity="100"/>
    <joint_properties damping="0.0" friction="0.0"/>
  </joint>
  
  
  
  
  <link name="root">
  </link>

  <link name="base">
    <visual>
      <geometry>
        <box size="0.4 0.1 0.5"/>
      </geometry>
      <origin rpy="0 0 0" xyz="0 0 0"/>
      <material name="gray">
        <color rgba="0.9 0.9 0.9 1"/>
      </material>
    </visual>
    <collision>
      <geometry>
       <box size="0.4 0.1 0.5"/>
      </geometry>
      <origin rpy="0 0 0" xyz="0 0 0"/>
    </collision>
    <inertial>
       <mass value="35"/><!-- 54 -->  
       <origin rpy="0 0 0" xyz="0 0 0"/>
      <inertia ixx="1.0" ixy="0.0" ixz="0.0" iyy="1.0" iyz="0.0" izz="1.0"/>
    </inertial>
  </link>



 <joint name="base_holder" type="fixed">
    <parent link="root"/>
    <child link="base"/>
    <origin rpy="0 0 0" xyz="0 0 -0.15"/>
  </joint>

<link name="base_left">
    <visual>
      <geometry>
        <box size="0.2 0.1 0.8"/>
      </geometry>
      <origin rpy="0 0 0" xyz="0 0 0"/>
      <material name="gray">
        <color rgba="0.9 0.9 0.9 1"/>
      </material>
    </visual>
    <collision>
      <geometry>
        <box size="0.2 0.1 0.8"/>
      </geometry>
      <origin rpy="0 0 0" xyz="0 0 0"/>
    </collision>
    <inertial>
       <mass value="10"/>
       <origin rpy="0 0 0" xyz="0 0 0"/>
      <inertia ixx="1.0" ixy="0.0" ixz="0.0" iyy="1.0" iyz="0.0" izz="1.0"/>
    </inertial>
  </link>

 <joint name="base_left_holder" type="fixed">
    <parent link="root"/>
    <child link="base_left"/>
    <origin rpy="0 0 0" xyz="0.3 0 0"/>
  </joint>

<link name="base_right">
    <visual>
      <geometry>
        <box size="0.2 0.1 0.8"/>
      </geometry>
      <origin rpy="0 0 0" xyz="0 0 0"/>
      <material name="gray">
        <color rgba="0.9 0.9 0.9 1"/>
      </material>
    </visual>
    <collision>
      <geometry>
       <box size="0.2 0.1 0.8"/>
      </geometry>
      <origin rpy="0 0 0" xyz="0 0 0"/>
    </collision>
    <inertial>
       <mass value="10"/>
       <origin rpy="0 0 0" xyz="0 0 0"/>
      <inertia ixx="1.0" ixy="0.0" ixz="0.0" iyy="1.0" iyz="0.0" izz="1.0"/>
    </inertial>
  </link>

 <joint name="base_right_holder" type="fixed">
    <parent link="root"/>
    <child link="base_right"/>
    <origin rpy="0 0 0" xyz="-0.3 0 0"/>
  </joint>




<!-- ramp shape  -->

 <link name="ramp">
    <visual>
      <geometry>
        <box size="0.4 0.05 0.7"/>
      </geometry>
      
      <origin rpy="0 0 0" xyz="0 0 0"/>
 		  <material name="gray">
        <color rgba="0.6 0.6 0.6 0.6"/>
      </material>
    </visual>
    <collision>
      <geometry>
        <box size="0.4 0.05 0.7"/>
      </geometry>
      <origin rpy="0 0 0" xyz="0 0 0"/>
    </collision>
    <inertial>
       <mass value="5"/>
       <origin rpy="0 0 0" xyz="0 0 0"/>
      <inertia ixx="1.0" ixy="0.0" ixz="0.0" iyy="1.0" iyz="0.0" izz="1.0"/>
    </inertial>
  </link>


 <joint name="ramp_holder" type="fixed">
    <parent link="root"/>
    <child link="ramp"/>
    <origin rpy="0.4 0 0" xyz="0 0.1 0"/>
  </joint>





  <!-- Module 0 -->
<link name="0_SM_suspension_holder">
  </link>

  <joint name="0_SM_suspension" type="prismatic">
    <axis xyz="0 1 0"/>
    <parent link="0_SM_suspension_holder"/>
    <child link="0_SM_body"/>
    <origin rpy="0 0 0" xyz="0.0 0.0 0.0"/>

    <joint_properties damping="0.0" friction="0.0"/>

    <limit effort="100.0" lower="-0.1" upper="0.0" velocity="100"/>
    <!--<safety_controller soft_lower_limit="-0.2" soft_upper_limit="0.2" k_velocity="0.001"/> -->


  </joint>


  <link name="0_SM_body">
  </link>

  <joint name="0_SM_motor_rotate" type="continuous">
    <axis xyz="0 1 0"/>
    <parent link="root"/>
    <child link="0_SM_suspension_holder"/>
    <origin rpy="0 0 0" xyz="0.3 -0.07 0.3"/>
    <limit effort="100" velocity="100"/>
    <joint_properties damping="0.0" friction="0.0"/>
  </joint>


  <link name="0_SM_wheel">
    <visual>
      <geometry>
        <cylinder length="0.04" radius="0.1"/>
      </geometry>
      <origin rpy="0 0 0" xyz="0 0 0"/>
      <material name="green">
        <color rgba="0 0.8 0 1"/>
      </material>
    </visual>
    <collision>
      <geometry>
        <cylinder length="0.04" radius="0.1"/>
      </geometry>
      <origin rpy="0 0 0" xyz="0 0 0"/>
    </collision>
    <inertial>
      <mass value="1"/>
      <origin rpy="0 0 0" xyz="0 0 0"/>
      <inertia ixx="0.0335‬" ixy="0.0" ixz="0.0" iyy="0.0335‬" iyz="0.0" izz="0.06"/>
    </inertial>
  </link>

  <joint name="0_SM_motor_drive" type="continuous">
    <axis xyz="0 0 1"/>
    <parent link="0_SM_body"/>
    <child link="0_SM_wheel"/>
    <origin rpy="0 0 0" xyz="0 0 0"/>
    <limit effort="100" velocity="100"/>
    <joint_properties damping="0.0" friction="0.0"/>
  </joint>


    <!-- Module 1 -->
  <link name="1_SM_suspension_holder">
  </link>

  <joint name="1_SM_suspension" type="prismatic">
    <axis xyz="0 1 0"/>
    <parent link="1_SM_suspension_holder"/>
    <child link="1_SM_body"/>
    <origin rpy="0 0 0" xyz="0.0 0.0 0.0"/>

    <joint_properties damping="0.0" friction="0.0"/>

    <limit effort="100.0" lower="-0.1" upper="0.0" velocity="100"/>
    <!--<safety_controller soft_lower_limit="-0.2" soft_upper_limit="0.2" k_velocity="0.001"/> -->


  </joint>


  <link name="1_SM_body">
  </link>

  <joint name="1_SM_motor_rotate" type="continuous">
    <axis xyz="0 1 0"/>
    <parent link="root"/>
    <child link="1_SM_suspension_holder"/>
    <origin rpy="0 0 0" xyz="-0.3 -0.07 -0.3"/>
    <limit effort="100" velocity="100"/>
    <joint_properties damping="0.0" friction="0.0"/>
  </joint>


  <link name="1_SM_wheel">
    <visual>
      <geometry>
        <cylinder length="0.04" radius="0.1"/>
      </geometry>
      <origin rpy="0 0 0" xyz="0 0 0"/>
       <material name="green">
        <color rgba="0 0.8 0 1"/>
      </material>
    </visual>
    <collision>
      <geometry>
        <cylinder length="0.04" radius="0.1"/>
      </geometry>
      <origin rpy="0 0 0" xyz="0 0 0"/>
    </collision>
    <inertial>
      <mass value="1"/>
      <origin rpy="0 0 0" xyz="0 0 0"/>
     <inertia ixx="0.0335‬" ixy="0.0" ixz="0.0" iyy="0.0335‬" iyz="0.0" izz="0.06"/>
    </inertial>
  </link>

  <joint name="1_SM_motor_drive" type="continuous">
    <axis xyz="0 0 1"/>
    <parent link="1_SM_body"/>
    <child link="1_SM_wheel"/>
    <origin rpy="0 0 0" xyz="0 0 0"/>
    <limit effort="100" velocity="100"/>
    <joint_properties damping="0.0" friction="0.0"/>
  </joint>


    <!-- Module 2 -->
 <link name="2_SM_suspension_holder">
  </link>

  <joint name="2_SM_suspension" type="prismatic">
    <axis xyz="0 1 0"/>
    <parent link="2_SM_suspension_holder"/>
    <child link="2_SM_body"/>
    <origin rpy="0 0 0" xyz="0.0 0.0 0.0"/>

    <joint_properties damping="0.0" friction="0.0"/>

    <limit effort="100.0" lower="-0.1" upper="0.0" velocity="100"/>
    <!--<safety_controller soft_lower_limit="-0.2" soft_upper_limit="0.2" k_velocity="0.001"/> -->


  </joint>


  <link name="2_SM_body">
  </link>

  <joint name="2_SM_motor_rotate" type="continuous">
    <axis xyz="0 1 0"/>
    <parent link="root"/>
    <child link="2_SM_suspension_holder"/>
    <origin rpy="0 0 0" xyz="-0.3 -0.07 0.3"/>
    <limit effort="100" velocity="100"/>
    <joint_properties damping="0.0" friction="0.0"/>
  </joint>


  <link name="2_SM_wheel">
    <visual>
      <geometry>
        <cylinder length="0.04" radius="0.1"/>
      </geometry>
      <origin rpy="0 0 0" xyz="0 0 0"/>
       <material name="green">
        <color rgba="0 0.8 0 1"/>
      </material>
    </visual>
    <collision>
      <geometry>
        <cylinder length="0.04" radius="0.1"/>
      </geometry>
      <origin rpy="0 0 0" xyz="0 0 0"/>
    </collision>
    <inertial>
      <mass value="1"/>
      <origin rpy="0 0 0" xyz="0 0 0"/>
     <inertia ixx="0.0335‬" ixy="0.0" ixz="0.0" iyy="0.0335‬" iyz="0.0" izz="0.06"/>
    </inertial>
  </link>

  <joint name="2_SM_motor_drive" type="continuous">
    <axis xyz="0 0 1"/>
    <parent link="2_SM_body"/>
    <child link="2_SM_wheel"/>
    <origin rpy="0 0 0" xyz="0 0 0"/>
    <limit effort="100" velocity="100"/>
    <joint_properties damping="0.0" friction="0.0"/>
  </joint>


    <!-- Module 3 -->
  <link name="3_SM_suspension_holder">
  </link>

  <joint name="3_SM_suspension" type="prismatic">
    <axis xyz="0 1 0"/>
    <parent link="3_SM_suspension_holder"/>
    <child link="3_SM_body"/>
    <origin rpy="0 0 0" xyz="0.0 0.0 0.0"/>

    <joint_properties damping="0.0" friction="0.0"/>

    <limit effort="100.0" lower="-0.1" upper="0.0" velocity="100"/>
    <!--<safety_controller soft_lower_limit="-0.2" soft_upper_limit="0.2" k_velocity="0.001"/> -->


  </joint>


  <link name="3_SM_body">
  </link>

  <joint name="3_SM_motor_rotate" type="continuous">
    <axis xyz="0 1 0"/>
    <parent link="root"/>
    <child link="3_SM_suspension_holder"/>
    <origin rpy="0 0 0" xyz="0.3 -0.07 -0.3"/>
    <limit effort="100" velocity="100"/>
    <joint_properties damping="0.0" friction="0.0"/>
  </joint>


  <link name="3_SM_wheel">
    <visual>
      <geometry>
        <cylinder length="0.04" radius="0.1"/>
      </geometry>
      <origin rpy="0 0 0" xyz="0 0 0"/>
      <material name="green">
        <color rgba="0 0.8 0 1"/>
      </material>
    </visual>
    <collision>
      <geometry>
        <cylinder length="0.04" radius="0.1"/>
      </geometry>
      <origin rpy="0 0 0" xyz="0 0 0"/>
    </collision>
    <inertial>
      <mass value="1"/>
      <origin rpy="0 0 0" xyz="0 0 0"/>
     <inertia ixx="0.0335‬" ixy="0.0" ixz="0.0" iyy="0.0335‬" iyz="0.0" izz="0.06"/>
    </inertial>
  </link>

  <joint name="3_SM_motor_drive" type="continuous">
    <axis xyz="0 0 1"/>
    <parent link="3_SM_body"/>
    <child link="3_SM_wheel"/>
    <origin rpy="0 0 0" xyz="0 0 0"/>
    <limit effort="100" velocity="100"/>
    <joint_properties damping="0.0" friction="0.0"/>
  </joint>


</robot>